2 소방 호스에서 마시기 – 데이터로 이야기하기
…
simulated_data <-
  tibble(
    # 각 선거구를 나타내기 위해 1부터 151까지 사용
    "Division" = 1:151,
    # 151번 무작위로 옵션을 선택합니다 (복원 추출)
    "Party" = sample(
      x = c("Liberal", "Labor", "National", "Green", "Other"),
      size = 151,
      replace = TRUE
    )
  )

simulated_data

# A tibble: 151 × 2
   Division Party   
      <int> <chr>   
 1        1 Liberal 
 2        2 Labor   
 3        3 Other   
 4        4 Liberal 
 5        5 Other   
 6        6 Other   
 7        7 Labor   
 8        8 Green   
 9        9 National
10       10 National
# ℹ 141 more rows
…
