5 그래프, 표, 지도 – 데이터로 이야기하기
…
5.2 그래프

더 건전하고 풍요로운 문명으로 나아가는 세상은 차트로 나아가는 세상이 될 것입니다.

Karsten (1923, p. 684)

그래프는 설득력 있는 데이터 스토리의 중요한 측면입니다. 그래프는 넓은 패턴과 세부 사항을 모두 볼 수 있게 해줍니다 (Cleveland [1985년] 1994, p. 5). 그래프는 다른 어떤 방법으로도 얻기 어려운 데이터에 대한 친숙함을 가능하게 합니다. 관심 있는 모든 변수는 그래프로 나타내야 합니다.

그래프의 가장 중요한 목표는 실제 데이터와 그 맥락을 가능한 한 많이 전달하는 것입니다. 어떤 면에서 그래프는 정보 인코딩 과정이며, 우리는 청중에게 정보를 전달하기 위해 의도적인 표현을 구성합니다. 청중은 그 표현을 디코딩해야 합니다. 우리 그래프의 성공은 이 과정에서 얼마나 많은 정보가 손실되는지에 달려 있으므로 디코딩은 중요한 측면입니다 (Cleveland [1985년] 1994, p. 221). 이는 우리가 특정 청중에 적합한 효과적인 그래프를 만드는 데 집중해야 함을 의미합니다.

그래프가 왜 중요한지 이해하기 위해 datasauRus를 설치하고 로드한 후 datasaurus_dozen 데이터 세트를 고려해 보십시오.

datasaurus_dozen

# A tibble: 1,846 × 3
   dataset     x     y
   <chr>   <dbl> <dbl>
 1 dino     55.4  97.2
 2 dino     51.5  96.0
 3 dino     46.2  94.5
 4 dino     42.8  91.4
 5 dino     40.8  88.3
 6 dino     38.7  84.9
 7 dino     35.6  79.9
 8 dino     33.1  77.6
 9 dino     29.0  74.5
10 dino     26.2  71.4
# ℹ 1,836 more rows
…
