6 측정, 인구 조사, 표본 추출 – 데이터로 이야기하기
…
최근에는 정부의 개방형 데이터에 대한 큰 움직임이 있었습니다. 정부가 가지고 있는 데이터를 이용 가능하게 해야 한다는 기본 원칙은 부인할 수 없습니다. 그러나 이 용어는 실제로 어떻게 발생했는지 때문에 약간 논란의 여지가 있습니다. 정부는 제공하고 싶은 데이터만 제공합니다. 우리는 때때로 정부의 서술에 맞게 데이터를 조작하는 것을 볼 수도 있습니다(Kalgin 2014; Zhang 기타 2019; Berdine, Geloso, 와/과 Powell 2018). 정부가 가지고 있지만 반드시 제공하고 싶지 않은 데이터를 얻는 한 가지 방법은 정보 자유(FOI) 요청을 제출하는 것입니다(Walby 와/과 Luscombe 2019). 예를 들어, (biasbehindbars는?) FOI의 데이터를 사용하여 캐나다 교도소 시스템에서 체계적인 인종 차별의 증거를 찾습니다.

양식 데이터셋은 항상 유용했지만, 프로그래밍 언어를 사용하지 않고 많은 분석이 수행되던 시기에 개발되었습니다. 이러한 데이터셋을 R로 가져오는 것을 더 쉽게 만들기 위해 많은 R 패키지가 개발되었습니다. 여기서는 특히 유용한 몇 가지를 다룹니다.

6.3.1 캐나다

캐나다 최초의 인구 조사는 1666년에 실시되었습니다.\index{census!Canada} 이것은 또한 모든 개인이 이름으로 기록된 최초의 현대 인구 조사였지만, 원주민은 포함하지 않습니다(Godfrey 1918, p. 179). 3,215명의 주민이 집계되었으며, 인구 조사는 나이, 성별, 결혼 여부 및 직업에 대해 질문했습니다(Statistics Canada 2023). 1867년 캐나다 연방과 관련하여, 새로운 의회에 정치 대표를 할당하기 위해 10년마다 인구 조사가 요구되었습니다. 그 이후로 정기적인 인구 조사가 있었습니다.

canlang을 사용하여 2016년 인구 조사에서 캐나다에서 사용되는 언어에 대한 일부 데이터를 탐색할 수 있습니다. 이 패키지는 CRAN에 없지만 GitHub에서 install.packages("devtools") 후 devtools::install_github("ttimbers/canlang")로 설치할 수 있습니다.\index{packages!install}

canlang을 로드한 후 can_lang 데이터셋을 사용할 수 있습니다. 이것은 214개 언어 각각을 사용하는 캐나다인의 수를 제공합니다.

can_lang

# A tibble: 214 × 6
   category          language mother_tongue most_at_home most_at_work lang_known
   <chr>             <chr>            <dbl>        <dbl>        <dbl>      <dbl>
 1 Aboriginal langu… Aborigi…           590          235           30        665
 2 Non-Official & N… Afrikaa…         10260         4785           85      23415
 3 Non-Official & N… Afro-As…          1150          445           10       2775
 4 Non-Official & N… Akan (T…         13460         5985           25      22150
 5 Non-Official & N… Albanian         26895        13135          345      31930
 6 Aboriginal langu… Algonqu…            45           10            0        120
 7 Aboriginal langu… Algonqu…          1260          370           40       2480
 8 Non-Official & N… America…          2685         3020         1145      21930
 9 Non-Official & N… Amharic          22465        12785          200      33670
10 Non-Official & N… Arabic          419890       223535         5585     629055
# ℹ 204 more rows
…
sec-multilevel-regression-with-post-stratification에서 이 데이터셋을 사용할 것이므로 간략하게 정리하고 준비하겠습니다. 우리의 코드는 (greatstudentwork를?) 기반으로 합니다.

ipums_extract <- read_dta("usa_00015.dta")

ipums_extract <- 
  ipums_extract |>
  select(stateicp, sex, age, educd) |>
  to_factor()

ipums_extract

# A tibble: 500,221 × 4
   stateicp sex    age   educd                                       
 * <fct>    <fct>  <fct> <fct>                                       
 1 alabama  male   77    grade 9                                     
 2 alabama  male   62    1 or more years of college credit, no degree
 3 alabama  male   25    ged or alternative credential               
 4 alabama  female 20    1 or more years of college credit, no degree
 5 alabama  male   37    1 or more years of college credit, no degree
 6 alabama  female 19    regular high school diploma                 
 7 alabama  female 67    regular high school diploma                 
 8 alabama  female 20    1 or more years of college credit, no degree
 9 alabama  male   66    grade 8                                     
10 alabama  male   58    regular high school diploma                 
# ℹ 500,211 more rows
…
cleaned_ipums

# A tibble: 407,354 × 4
   gender age_group education_level     stateicp
   <fct>  <fct>     <fct>               <fct>   
 1 male   60+       High school or less alabama 
 2 male   60+       Some post sec       alabama 
 3 male   18-29     High school or less alabama 
 4 female 18-29     Some post sec       alabama 
 5 male   30-44     Some post sec       alabama 
 6 female 18-29     High school or less alabama 
 7 female 60+       High school or less alabama 
 8 female 18-29     Some post sec       alabama 
 9 male   60+       High school or less alabama 
10 male   45-59     High school or less alabama 
# ℹ 407,344 more rows
…
어떤 모집단 모수의 비율 추정량은 두 평균의 비율입니다.\index{estimator!ratio} 예를 들어, 30일 동안 유아가 잠을 잔 총 시간을 알고 있고, 같은 기간 동안 부모가 잠을 잔 시간을 알고 싶다고 상상해 봅시다. 우리는 30일 동안 유아가 밤에 잠을 자는 시간, \(x\), 그리고 부모가 밤에 잠을 자는 시간, \(y\)에 대한 일부 정보를 가지고 있을 수 있습니다.\index{simulation!toddler sleep}

set.seed(853)

sleep <-
  tibble(
    toddler_sleep = sample(x = c(2:14), size = 30, replace = TRUE),
    difference = sample(x = c(0:3), size = 30, replace = TRUE),
    parent_sleep = toddler_sleep - difference
  ) |>
  select(toddler_sleep, parent_sleep, difference)

sleep

# A tibble: 30 × 3
   toddler_sleep parent_sleep difference
           <int>        <int>      <int>
 1            10            9          1
 2            11           11          0
 3            14           12          2
 4             2            0          2
 5             6            5          1
 6            14           12          2
 7             3            3          0
 8             5            3          2
 9             4            1          3
10             4            3          1
# ℹ 20 more rows
…
