7 API, 스크래핑, 파싱 – 데이터로 이야기하기
…
먼저 문자 벡터를 티블로 변환해야 합니다. 이 시점에서 페이지 번호도 추가하고 싶을 수 있습니다.

jane_eyre <- tibble(
  raw_text = third_example,
  page_number = c(1:2)
)

그런 다음 각 줄이 관측치가 되도록 줄을 분리하고 싶습니다. 특수 문자이므로 백슬래시를 이스케이프해야 한다는 점을 기억하면서 “\n”을 찾아 그렇게 할 수 있습니다.

jane_eyre <-
  separate_rows(jane_eyre, raw_text, sep = "\\n", convert = FALSE)

jane_eyre

# A tibble: 93 × 2
   raw_text                                                          page_number
   <chr>                                                                   <int>
 1 "CHAPTER I"                                                                 1
 2 "There was no possibility of taking a walk that day. We had been…           1
 3 "leafless shrubbery an hour in the morning; but since dinner (Mr…           1
 4 "company, dined early) the cold winter wind had brought with it …           1
 5 "penetrating, that further out-door exercise was now out of the …           1
 6 ""                                                                          1
 7 "I was glad of it: I never liked long walks, especially on chill…           1
 8 "coming home in the raw twilight, with nipped fingers and toes, …           1
 9 "chidings of Bessie, the nurse, and humbled by the consciousness…           1
10 "Eliza, John, and Georgiana Reed."                                          1
# ℹ 83 more rows
…
