8 실험 및 설문 조사 – 데이터로 이야기하기
…
두 그룹 간의 이 값을 비교합니다.

이것은 sec-on-writing에서 소개된 추정량으로, 관심 있는 것을 추측하는 방법입니다. 추정 대상은 관심 있는 것이며, 이 경우 평균 효과이고, 추정치는 우리의 추측이 무엇이든 간에 나타나는 것입니다. 상황을 설명하기 위해 데이터를 시뮬레이션할 수 있습니다.

set.seed(853)

treat_control <-
  tibble(
    group = sample(x = c("Treatment", "Control"), size = 100, replace = TRUE),
    binary_effect = sample(x = c(0, 1), size = 100, replace = TRUE)
    )

treat_control

# A tibble: 100 × 2
   group     binary_effect
   <chr>             <dbl>
 1 Treatment             0
 2 Control               1
 3 Control               1
 4 Treatment             1
 5 Treatment             1
 6 Treatment             0
 7 Treatment             1
 8 Treatment             1
 9 Control               0
10 Control               0
# ℹ 90 more rows
…
