9 정리, 준비 및 테스트 – 데이터로 이야기하기
…
그런 다음 코드를 사용하여 데이터를 시뮬레이션합니다. 다시, 이 과정은 우리가 어떤 함수를 사용할지 결정해야 하므로 데이터셋에서 합리적인 값이 어떻게 보이는지에 대해 생각하도록 강요합니다. 각 변수의 고유한 값에 대해 신중하게 생각해야 합니다. 예를 들어, 변수가 “성별”을 의미한다면 “남성”, “여성”, “기타”, “알 수 없음”과 같은 고유한 값이 예상될 수 있지만, “1,000”과 같은 숫자는 잘못되었을 가능성이 높습니다. 또한 함수 출력을 변수에 할당해야 하므로 이름에 대해 명시적으로 생각하도록 강요합니다. 예를 들어, 미국 주에 대한 일부 인구 데이터를 시뮬레이션할 수 있습니다.

set.seed(853)

simulated_population <-
  tibble(
    state = state.name,
    population = runif(n = 50, min = 0, max = 50) |>
      round(digits = 2)
  )

simulated_population

# A tibble: 50 × 2
   state       population
   <chr>            <dbl>
 1 Alabama          18.0 
 2 Alaska            6.01
 3 Arizona          24.2 
 4 Arkansas         15.8 
 5 California        1.87
 6 Colorado         20.2 
 7 Connecticut       6.54
 8 Delaware         12.1 
 9 Florida           7.9 
10 Georgia           9.44
# ℹ 40 more rows
…
toronto_shelters_2017 <-
  toronto_shelters_2017 |>
  mutate(
    # 시간 제거
    occupancy_date =
      str_remove(
        occupancy_date,
        "T[:digit:]{2}:[:digit:]{2}:[:digit:]{2}"
        )) |>
  mutate(generated_date = ymd(occupancy_date, quiet = TRUE))

toronto_shelters_2017

# A tibble: 38,700 × 5
   occupancy_date sector   occupancy capacity generated_date
   <chr>          <chr>        <dbl>    <dbl> <date>        
 1 2017-01-01     Co-ed           16       16 2017-01-01    
 2 2017-01-01     Men             13       17 2017-01-01    
 3 2017-01-01     Men             63       63 2017-01-01    
 4 2017-01-01     Families        66       70 2017-01-01    
 5 2017-01-01     Men             58       60 2017-01-01    
 6 2017-01-01     Families       168      160 2017-01-01    
 7 2017-01-01     Families       119      150 2017-01-01    
 8 2017-01-01     Men             23       28 2017-01-01    
 9 2017-01-01     Families         8        0 2017-01-01    
10 2017-01-01     Co-ed           14       40 2017-01-01    
# ℹ 38,690 more rows
…
sim_run_data

# A tibble: 200 × 2
   five_km_time marathon_time
          <dbl>         <dbl>
 1         20.4          164.
 2         16.8          158 
 3         22.3          196.
 4         19.7          160.
 5         15.6          121.
 6         21.1          178.
 7         17            157.
 8         18.6          169.
 9         17.4          150.
10         17.8          126.
# ℹ 190 more rows
…
stopifnot(
  min(sim_run_data$marathon_time) >= 118,
  max(sim_run_data$marathon_time) <= 300
)

그런 다음 이러한 테스트를 실제 데이터에 적용할 수 있습니다. 5킬로미터 및 마라톤 달리기 시간 간의 관계에 대한 실제 설문 조사 데이터는 (Vickers2016에서?) 사용할 수 있습니다. (Vickers2016이?) “추가 파일”로 제공하는 데이터를 다운로드한 후, 관심 있는 변수와 5킬로미터 시간 및 마라톤 시간을 모두 가진 개인에게만 초점을 맞출 수 있습니다.

vickers_data <-
  read_excel("13102_2016_52_MOESM2_ESM.xlsx") |> 
  select(k5_ti, mf_ti) |> 
  drop_na()

vickers_data

# A tibble: 430 × 2
   k5_ti mf_ti
   <dbl> <dbl>
 1  1075 10295
 2  1292 12292
 3  1222 13452
 4   893  9515
 5  1050 10875
 6  1603 16580
 7  1457 15440
 8  1256 13113
 9  1572 17190
10  2575 22139
# ℹ 420 more rows

가장 먼저 눈에 띄는 것은 데이터가 초 단위로 되어 있지만, 우리는 분 단위로 예상했다는 것입니다. 이것은 괜찮습니다. 우리의 시뮬레이션과 테스트를 업데이트하거나 데이터를 조정할 수 있습니다. 우리의 시뮬레이션과 테스트는 데이터가 약간 다르더라도(필연적으로 그럴 것입니다) 그 가치를 유지합니다.

이 경우, 데이터를 분 단위로 전환하기 위해 60으로 나누고 반올림할 것입니다.

vickers_data <-
  vickers_data |> 
  mutate(five_km_time = round(k5_ti / 60, 1),
         marathon_time = round(mf_ti / 60, 1)
         ) |> 
  select(five_km_time, marathon_time)

vickers_data

# A tibble: 430 × 2
   five_km_time marathon_time
          <dbl>         <dbl>
 1         17.9          172.
 2         21.5          205.
 3         20.4          224.
 4         14.9          159.
 5         17.5          181.
 6         26.7          276.
 7         24.3          257.
 8         20.9          219.
 9         26.2          286.
10         42.9          369 
# ℹ 420 more rows
…
# NA 행이 하나 있으므로 제거합니다.
demography_data_long <-
  demography_data_long |>
  remove_empty(which = c("rows"))

demography_data_long

# A tibble: 123 × 4
   age   male      female    total    
   <chr> <chr>     <chr>     <chr>    
 1 Total 2,192,452 2,204,376 4,396,828
 2 0     57,265    56,523    113,788  
 3 1     56,019    54,601    110,620  
 4 2     52,518    51,848    104,366  
 5 3     51,115    51,027    102,142  
 6 4     47,182    46,889    94,071   
 7 0-4   264,099   260,888   524,987  
 8 5     45,203    44,711    89,914   
 9 6     43,635    44,226    87,861   
10 7     43,507    43,655    87,162   
# ℹ 113 more rows
…
쉼표를 제거해야 합니다. 여기서 janitor를 사용할 수도 있지만, janitor(및 다른 패키지)가 원하는 방식으로 처리하지 못하는 이상한 것들이 있을 수 있으므로 적어도 먼저 무슨 일이 일어나고 있는지 살펴보는 것이 좋습니다. 그럼에도 불구하고, 제거해야 할 모든 것을 식별한 후 실제 제거를 수행하고 숫자 문자열 열을 정수로 변환할 수 있습니다.

demography_data_long <-
  demography_data_long |>
  mutate(across(c(male, female, total), ~ str_remove_all(., ","))) |>
  mutate(across(c(male, female, total), ~ as.integer(.)))

demography_data_long

# A tibble: 123 × 4
   age      male  female   total
   <chr>   <int>   <int>   <int>
 1 Total 2192452 2204376 4396828
 2 0       57265   56523  113788
 3 1       56019   54601  110620
 4 2       52518   51848  104366
 5 3       51115   51027  102142
 6 4       47182   46889   94071
 7 0-4    264099  260888  524987
 8 5       45203   44711   89914
 9 6       43635   44226   87861
10 7       43507   43655   87162
# ℹ 113 more rows
…
