10 저장 및 공유 – 데이터로 이야기하기
…
이 목록을 read_csv()에 전달하면 파일을 읽어들여 결합합니다.

year_of_data <-
  read_csv(
    files_of_interest,
    col_types = cols(
      user = col_double(),
      month = col_character(),
      comments = col_double(),
    )
  )

year_of_data

# A tibble: 12,000 × 3
    user month    comments
   <dbl> <chr>       <dbl>
 1     1 february        3
 2     2 february        2
 3     3 february        1
 4     4 february        7
 5     5 february        1
 6     6 february        1
 7     7 february        1
 8     8 february        7
 9     9 february        3
10    10 february        0
# ℹ 11,990 more rows

4월의 첫 10일을 출력합니다. 알파벳순으로 4월이 첫 번째 달이므로 가장 먼저 읽힌 CSV입니다.

이것은 CSV 파일이 있을 때 잘 작동하지만, 항상 CSV 파일이 있는 것은 아니므로 다른 방법이 필요하며, map_dfr()를 사용하여 이를 수행할 수 있습니다. 이 접근 방식의 좋은 점 중 하나는 “.id”를 사용하여 관측치와 함께 파일 이름을 포함할 수 있다는 것입니다. 여기서는 해당 열을 “file”이라고 부르고 싶다고 지정하지만, 무엇이든 될 수 있습니다.

year_of_data_using_purrr <-
  files_of_interest |>
  map_dfr(read_csv, .id = "file")

# A tibble: 12,000 × 4
   file          user month    comments
   <chr>        <dbl> <chr>       <dbl>
 1 February.csv     1 february        3
 2 February.csv     2 february        2
 3 February.csv     3 february        1
 4 February.csv     4 february        7
 5 February.csv     5 february        1
 6 February.csv     6 february        1
 7 February.csv     7 february        1
 8 February.csv     8 february        7
 9 February.csv     9 february        3
10 February.csv    10 february        0
# ℹ 11,990 more rows
…
