11 탐색적 데이터 분석 – 데이터로 이야기하기
…
11.2 1975년 미국 인구 및 소득 데이터

첫 번째 예시로 1975년 기준 미국 주 인구를 고려합니다. 이 데이터셋은 state.x77과 함께 R에 내장되어 있습니다. 데이터셋은 다음과 같습니다.

us_populations <-
  state.x77 |>
  as_tibble() |>
  clean_names() |>
  mutate(state = rownames(state.x77)) |>
  select(state, population, income)

us_populations

# A tibble: 50 × 3
   state       population income
   <chr>            <dbl>  <dbl>
 1 Alabama           3615   3624
 2 Alaska             365   6315
 3 Arizona           2212   4530
 4 Arkansas          2110   3378
 5 California       21198   5114
 6 Colorado          2541   4884
 7 Connecticut       3100   5348
 8 Delaware           579   4809
 9 Florida           8277   4815
10 Georgia           4931   4091
# ℹ 40 more rows
…
highest_population_states <-
  us_populations |>
  slice_max(population, n = 3) |>
  pull(state)

us_states_MNAR <-
  us_populations |>
  mutate(population =
           if_else(state %in% highest_population_states,
                   NA_real_,
                   population))

us_states_MNAR

# A tibble: 50 × 3
   state       population income
   <chr>            <dbl>  <dbl>
 1 Alabama           3615   3624
 2 Alaska             365   6315
 3 Arizona           2212   4530
 4 Arkansas          2110   3378
 5 California          NA   5114
 6 Colorado          2541   4884
 7 Connecticut       3100   5348
 8 Delaware           579   4809
 9 Florida           8277   4815
10 Georgia           4931   4091
# ℹ 40 more rows
…
시작하려면 2021년 토론토 교통 위원회(TTC) 지하철 지연 데이터를 다운로드합니다. 데이터는 각 월별 별도의 시트가 있는 Excel 파일로 제공됩니다. 2021년에만 관심이 있으므로 해당 연도만 필터링한 다음 opendatatoronto의 get_resource()를 사용하여 다운로드하고 bind_rows()로 월을 결합합니다.

all_2021_ttc_data <-
  list_package_resources("996cfe8d-fb35-40ce-b569-698d51fc683b") |>
  filter(name == "ttc-subway-delay-data-2021") |>
  get_resource() |>
  bind_rows() |>
  clean_names()

write_csv(all_2021_ttc_data, "all_2021_ttc_data.csv")

all_2021_ttc_data

# A tibble: 16,370 × 10
   date                time   day    station code  min_delay min_gap bound line 
   <dttm>              <time> <chr>  <chr>   <chr>     <dbl>   <dbl> <chr> <chr>
 1 2021-01-01 00:00:00 00:33  Friday BLOOR … MUPAA         0       0 N     YU   
 2 2021-01-01 00:00:00 00:39  Friday SHERBO… EUCO          5       9 E     BD   
 3 2021-01-01 00:00:00 01:07  Friday KENNED… EUCD          5       9 E     BD   
 4 2021-01-01 00:00:00 01:41  Friday ST CLA… MUIS          0       0 <NA>  YU   
 5 2021-01-01 00:00:00 02:04  Friday SHEPPA… MUIS          0       0 <NA>  YU   
 6 2021-01-01 00:00:00 02:35  Friday KENNED… MUIS          0       0 <NA>  BD   
 7 2021-01-01 00:00:00 02:39  Friday VAUGHA… MUIS          0       0 <NA>  YU   
 8 2021-01-01 00:00:00 06:00  Friday TORONT… MUO           0       0 <NA>  YU   
 9 2021-01-01 00:00:00 06:00  Friday TORONT… MUO           0       0 <NA>  SHP  
10 2021-01-01 00:00:00 06:00  Friday TORONT… MRO           0       0 <NA>  SRT  
# ℹ 16,360 more rows
# ℹ 1 more variable: vehicle <dbl>
…
all_2021_ttc_data_filtered_lines <-
  all_2021_ttc_data |>
  filter(line %in% c("YU", "BD", "SHP", "SRT"))

전체 경력이 결측 데이터를 이해하는 데 사용되며, 결측값의 존재 또는 부재는 분석을 괴롭힐 수 있습니다. 시작하려면 알려진-알 수 없는 값, 즉 각 변수에 대한 NA를 살펴볼 수 있습니다. 예를 들어, 변수별로 개수를 만들 수 있습니다.

이 경우 “bound”에 많은 결측값이 있고 “line”에 두 개가 있습니다. sec-farm-data에서 논의했듯이, 이러한 알려진-알 수 없는 값에 대해 우리는 그것들이 무작위로 결측되었는지 여부에 관심이 있습니다. 이상적으로는 데이터가 그냥 누락되었다는 것을 보여주고 싶습니다. 그러나 이것은 가능성이 낮으므로 우리는 일반적으로 데이터가 결측된 방식에 대한 체계적인 것을 찾으려고 합니다.

때로는 데이터가 중복되는 경우가 있습니다. 이것을 알아차리지 못하면 우리의 분석은 일관되게 예상할 수 없는 방식으로 잘못될 것입니다. 중복된 행을 찾는 다양한 방법이 있지만, janitor의 get_dupes()는 특히 유용합니다.

get_dupes(all_2021_ttc_data_filtered_lines)

# A tibble: 36 × 11
   date                time   day    station code  min_delay min_gap bound line 
   <dttm>              <time> <chr>  <chr>   <chr>     <dbl>   <dbl> <chr> <chr>
 1 2021-09-13 00:00:00 06:00  Monday TORONT… MRO           0       0 <NA>  SRT  
 2 2021-09-13 00:00:00 06:00  Monday TORONT… MRO           0       0 <NA>  SRT  
 3 2021-09-13 00:00:00 06:00  Monday TORONT… MRO           0       0 <NA>  SRT  
 4 2021-09-13 00:00:00 06:00  Monday TORONT… MUO           0       0 <NA>  SHP  
 5 2021-09-13 00:00:00 06:00  Monday TORONT… MUO           0       0 <NA>  SHP  
 6 2021-09-13 00:00:00 06:00  Monday TORONT… MUO           0       0 <NA>  SHP  
 7 2021-03-31 00:00:00 05:45  Wedne… DUNDAS… MUNCA         0       0 <NA>  BD   
 8 2021-03-31 00:00:00 05:45  Wedne… DUNDAS… MUNCA         0       0 <NA>  BD   
 9 2021-06-08 00:00:00 14:40  Tuesd… VAUGHA… MUNOA         3       6 S     YU   
10 2021-06-08 00:00:00 14:40  Tuesd… VAUGHA… MUNOA         3       6 S     YU   
# ℹ 26 more rows
# ℹ 2 more variables: vehicle <dbl>, dupe_count <int>
…
all_2021_ttc_data_no_dupes

# A tibble: 15,908 × 11
   date                time   day    station code  min_delay min_gap bound line 
   <dttm>              <time> <chr>  <chr>   <chr>     <dbl>   <dbl> <chr> <chr>
 1 2021-01-01 00:00:00 00:33  Friday BLOOR … MUPAA         0       0 N     YU   
 2 2021-01-01 00:00:00 00:39  Friday SHERBO… EUCO          5       9 E     BD   
 3 2021-01-01 00:00:00 01:07  Friday KENNED… EUCD          5       9 E     BD   
 4 2021-01-01 00:00:00 01:41  Friday ST CLA… MUIS          0       0 <NA>  YU   
 5 2021-01-01 00:00:00 02:04  Friday SHEPPA… MUIS          0       0 <NA>  YU   
 6 2021-01-01 00:00:00 02:35  Friday KENNED… MUIS          0       0 <NA>  BD   
 7 2021-01-01 00:00:00 02:39  Friday VAUGHA… MUIS          0       0 <NA>  YU   
 8 2021-01-01 00:00:00 06:00  Friday TORONT… MUO           0       0 <NA>  YU   
 9 2021-01-01 00:00:00 06:00  Friday TORONT… MUO           0       0 <NA>  SHP  
10 2021-01-01 00:00:00 06:00  Friday TORONT… MRO           0       0 <NA>  SRT  
# ℹ 15,898 more rows
# ℹ 2 more variables: vehicle <dbl>, station_clean <chr>
…
all_2021_ttc_data_no_dupes_with_explanation <-
  all_2021_ttc_data_no_dupes |>
  mutate(type = if_else(line == "SRT", "srt", "sub")) |>
  left_join(
    fix_organization_of_codes,
    by = c("type", "code")
  )

all_2021_ttc_data_no_dupes_with_explanation |>
  select(station_clean, code, min_delay, code_desc) |>
  arrange(-min_delay)

# A tibble: 15,908 × 4
   station_clean code  min_delay code_desc                                  
   <chr>         <chr>     <dbl> <chr>                                      
 1 MUSEUM        PUTTP       348 Traction Power Rail Related                
 2 EGLINTON      PUSTC       343 Signals - Track Circuit Problems           
 3 WOODBINE      MUO         312 Miscellaneous Other                        
 4 MCCOWAN       PRSL        275 Loop Related Failures                      
 5 SHEPPARD WEST PUTWZ       255 Work Zone Problems - Track                 
 6 ISLINGTON     MUPR1       207 Priority One - Train in Contact With Person
 7 SHEPPARD WEST MUPR1       191 Priority One - Train in Contact With Person
 8 ROYAL         SUAP        182 Assault / Patron Involved                  
 9 ROYAL         MUPR1       180 Priority One - Train in Contact With Person
10 SHEPPARD      MUPR1       171 Priority One - Train in Contact With Person
# ℹ 15,898 more rows
…
[1] "$100.00" "$65.00"  "$132.00" "$100.00" "$120.00" "$43.00" 

airbnb_data_selected$price |>
  str_split("") |>
  unlist() |>
  unique()

 [1] "$" "1" "0" "." "6" "5" "3" "2" "4" "9" "8" "7" ","

airbnb_data_selected |>
  select(price) |>
  filter(str_detect(price, ","))

# A tibble: 1,629 × 1
   price    
   <chr>    
 1 $3,070.00
 2 $1,570.00
 3 $1,480.00
 4 $1,000.00
 5 $1,100.00
 6 $1,433.00
 7 $1,800.00
 8 $1,000.00
 9 $1,000.00
10 $1,000.00
# ℹ 1,619 more rows
…
tidy_anscombe_MCAR

# A tibble: 44 × 3
   set       x     y
   <chr> <dbl> <dbl>
 1 1        10  8.04
 2 2        10  9.14
 3 3        NA NA   
 4 4         8 NA   
 5 1         8  6.95
 6 2         8  8.14
 7 3         8  6.77
 8 4         8  5.76
 9 1        NA  7.58
10 2        13  8.74
# ℹ 34 more rows
…
tidy_anscombe_MNAR

# A tibble: 44 × 3
   set       x     y
   <chr> <dbl> <dbl>
 1 1        NA NA   
 2 1        NA NA   
 3 1         9 NA   
 4 1        11  8.33
 5 1        10  8.04
 6 1        NA  7.58
 7 1         6  7.24
 8 1         8  6.95
 9 1         5  5.68
10 1         7  4.82
# ℹ 34 more rows
…
