16 사후 층화 다단계 회귀 – 데이터로 이야기하기
…
set.seed(853)

pop_size <- 1000000

sim_population <-
  tibble(
    age = rbinom(n = pop_size, size = 1, prob = 0.5),
    nationality = rbinom(n = pop_size, size = 1, prob = 0.5),
    probability = (age + nationality + 0.1) / 2.2, # 확실성 방지
    prefers_tea = rbinom(n = pop_size, 1, prob = probability)
  ) 

sim_population

# A tibble: 1,000,000 × 4
     age nationality probability prefers_tea
   <int>       <int>       <dbl>       <int>
 1     0           1      0.5              0
 2     0           0      0.0455           0
 3     0           1      0.5              1
 4     0           0      0.0455           0
 5     0           0      0.0455           0
 6     0           0      0.0455           0
 7     0           1      0.5              0
 8     0           0      0.0455           0
 9     0           1      0.5              1
10     0           0      0.0455           0
# ℹ 999,990 more rows
…
이제 사후 층화 데이터셋을 사용하여 각 셀의 수에 대한 추정치를 얻을 것입니다. 일반적으로 모집단을 더 밀접하게 반영할 수 있는 더 큰 데이터셋을 사용합니다. 미국에서는 sec-farm-data에서 다루었던 미국 지역사회 조사(ACS)가 인기 있는 선택이며, 다른 국가에서는 일반적으로 인구 조사를 사용합니다.

이 시뮬레이션된 예시에서는 모집단을 사후 층화 데이터셋으로 사용할 수 있습니다. 문제는 100만 개의 관측치로 다루기 어렵다는 것이므로, 그 중 10,000명 표본을 추출합니다. 또한 차 선호도 변수는 우리가 모른다고 가정하므로 제거합니다.

set.seed(853)

tea_poststrat_dataset <-
  sim_population |>
  slice_sample(n = 10000) |>
  select(-prefers_tea)

tea_poststrat_dataset

# A tibble: 10,000 × 3
     age nationality probability
   <int>       <int>       <dbl>
 1     0           1      0.5   
 2     0           1      0.5   
 3     0           1      0.5   
 4     0           1      0.5   
 5     1           0      0.5   
 6     1           0      0.5   
 7     0           0      0.0455
 8     1           0      0.5   
 9     1           0      0.5   
10     1           0      0.5   
# ℹ 9,990 more rows
…
16.3 2020년 미국 대통령 선거 예측

미국 대통령 선거는 미국에만 고유한 많은 특징을 가지고 있지만, 여기서 구축할 모델은 다양한 설정에 일반화될 수 있습니다. sec-hunt-data에서 소개된 민주주의 기금 유권자 연구 그룹의 설문 조사 데이터를 사용할 것입니다. 그들은 미국 선거를 앞두고 여론 조사를 실시했으며, 등록 후 공개적으로 이용할 수 있도록 합니다. sec-farm-data에서 소개된 IPUMS를 사용하여 2019년 미국 지역사회 조사(ACS)를 사후 층화 데이터셋으로 사용할 것입니다. 주, 연령대, 성별 및 교육을 설명 변수로 사용할 것입니다.

16.3.1 설문 조사 데이터

민주주의 기금 유권자 연구 그룹 Nationscape 설문 조사 데이터셋을 사용할 것입니다. MRP의 한 가지 까다로운 측면은 설문 조사 데이터셋과 사후 층화 데이터셋 간의 일관성을 보장하는 것입니다. 이 경우, sec-hunt-data에서 정리한 데이터셋을 읽어들인 후 변수를 일관되게 만들기 위해 일부 작업을 수행해야 합니다.

nationscape_data <-
  read_csv(file = "nationscape_data.csv")

nationscape_data

# A tibble: 5,200 × 5
   gender state vote_biden age_group education_level    
 * <chr>  <chr>      <dbl> <chr>     <chr>              
 1 female WI             0 45-59     Post sec +         
 2 female VA             0 45-59     Post sec +         
 3 female TX             0 60+       High school or less
 4 female WA             0 45-59     High school or less
 5 female MA             1 18-29     Some post sec      
 6 female TX             1 30-44     Some post sec      
 7 female CA             0 60+       Some post sec      
 8 female NC             0 45-59     Post sec +         
 9 female MD             0 60+       Post sec +         
10 female FL             1 45-59     Some post sec      
# ℹ 5,190 more rows
…
마지막으로, 준비된 데이터셋을 parquet 파일로 저장합니다.

write_parquet(x = nationscape_data,
              sink = "nationscape_data_cleaned.parquet")

16.3.2 사후 층화 데이터

사후 층화할 데이터셋에 대한 많은 옵션이 있으며, 다양한 고려 사항이 있습니다. 우리는 좋은 품질(정의되어야 함)의 데이터셋을 찾고 있으며, 아마도 더 큰 데이터셋을 찾고 있습니다. 엄밀히 데이터 관점에서 보면, 최상의 선택은 sec-its-just-a-linear-model에서 사용된 협동 선거 연구(CES)와 같은 것일 것입니다. 그러나 이는 선거 후에만 공개되므로 선거 예측에 사용하는 합리성이 제한됩니다. (wang2015forecasting은?) 출구 조사 데이터를 사용하지만, 이 또한 선거 후에만 사용 가능합니다.

sec-farm-data에서 수집한 2019년 미국 지역사회 조사(ACS) 데이터셋을 사후 층화 데이터셋으로 사용할 것입니다.

poststrat_data

# A tibble: 407,354 × 4
   gender age_group education_level     stateicp
 * <fct>  <fct>     <fct>               <fct>   
 1 male   60+       High school or less alabama 
 2 male   60+       Some post sec       alabama 
 3 male   18-29     High school or less alabama 
 4 female 18-29     Some post sec       alabama 
 5 male   30-44     Some post sec       alabama 
 6 female 18-29     High school or less alabama 
 7 female 60+       High school or less alabama 
 8 female 18-29     Some post sec       alabama 
 9 male   60+       High school or less alabama 
10 male   45-59     High school or less alabama 
# ℹ 407,344 more rows
…
poststrat_data_cells <-
  poststrat_data |>
  count(stateicp, gender, age_group, education_level)

마지막으로 각 셀에 대한 비율을 추가합니다.

poststrat_data_cells <-
  poststrat_data_cells |>
  mutate(prop = n / sum(n),
         .by = stateicp)

poststrat_data_cells

# A tibble: 1,627 × 6
   stateicp    gender age_group education_level         n    prop
   <fct>       <fct>  <fct>     <fct>               <int>   <dbl>
 1 connecticut male   18-29     High school or less   194 0.0419 
 2 connecticut male   18-29     Some post sec         128 0.0276 
 3 connecticut male   18-29     Post sec +             72 0.0156 
 4 connecticut male   18-29     Grad degree            14 0.00302
 5 connecticut male   30-44     High school or less   132 0.0285 
 6 connecticut male   30-44     Some post sec          93 0.0201 
 7 connecticut male   30-44     Post sec +            147 0.0317 
 8 connecticut male   30-44     Grad degree            88 0.0190 
 9 connecticut male   45-59     High school or less   187 0.0404 
10 connecticut male   45-59     Some post sec          88 0.0190 
# ℹ 1,617 more rows
…
