17 데이터로서의 텍스트 – 데이터로 이야기하기
…
이 경우 우리는 튜플이 무엇인지 알고 있었습니다. 그러나 코퍼스에서 일반적인 튜플이 무엇인지 확신하지 못했을 수도 있습니다. tokens_ngrams()를 사용하여 식별할 수 있습니다. 예를 들어, 제인 에어의 발췌문에서 모든 바이그램을 요청할 수 있습니다. sec-its-just-a-generalized-linear-model에서 프로젝트 구텐베르크에서 이 책의 텍스트를 다운로드하는 방법을 보여주었으므로, 여기서는 이전에 저장한 로컬 버전을 로드합니다.

jane_eyre <- read_csv(
  "jane_eyre.csv",
  col_types = cols(
    gutenberg_id = col_integer(),
    text = col_character()
  )
)

jane_eyre

# A tibble: 21,001 × 2
   gutenberg_id text                           
          <int> <chr>                          
 1         1260 JANE EYRE                      
 2         1260 AN AUTOBIOGRAPHY               
 3         1260 <NA>                           
 4         1260 by Charlotte Brontë            
 5         1260 <NA>                           
 6         1260 _ILLUSTRATED BY F. H. TOWNSEND_
 7         1260 <NA>                           
 8         1260 London                         
 9         1260 SERVICE & PATON                
10         1260 5 HENRIETTA STREET             
# ℹ 20,991 more rows
…
17.2.6 중복

중복은 텍스트 데이터셋의 크기 때문에 주요 관심사입니다. 예를 들어, (bandy2021addressing은?) BookCorpus 데이터셋의 약 30%가 부적절하게 중복되었음을 보여주었으며, (schofield2017quantifying은?) 이것이 주요 관심사이며 결과에 상당한 영향을 미칠 수 있음을 보여줍니다. 그러나 이는 미묘하고 진단하기 어려운 문제일 수 있습니다. 예를 들어, sec-its-just-a-generalized-linear-model에서 포아송 회귀의 맥락에서 다양한 작가의 페이지 번호 개수를 고려했을 때, 각 셰익스피어 항목을 실수로 두 번 포함했을 수 있습니다. 왜냐하면 각 희곡에 대한 항목뿐만 아니라 모든 희곡을 포함하는 많은 선집도 있기 때문입니다. 데이터셋에 대한 신중한 고려는 문제를 식별했지만, 대규모에서는 어려울 것입니다.

17.3 용어 빈도-역 문서 빈도 (TF-IDF)

17.3.1 점성술 구별

실제 데이터셋을 탐색하기 위해 점성술 데이터셋인 astrologer를 설치하고 로드합니다.

그런 다음 “horoscopes” 데이터셋에 접근할 수 있습니다.

horoscopes

# A tibble: 1,272 × 4
   startdate  zodiacsign  horoscope                                        url  
   <date>     <fct>       <chr>                                            <chr>
 1 2015-01-05 Aries       Considering the fact that this past week (espec… http…
 2 2015-01-05 Taurus      It's time Taurus. You aren't one to be rushed a… http…
 3 2015-01-05 Gemini      Soon it will be time to review what you know, t… http…
 4 2015-01-05 Cancer      Feeling  feelings and being full of flavorful s… http…
 5 2015-01-05 Leo         Look, listen, watch, meditate and engage in pra… http…
 6 2015-01-05 Virgo       Last week's astrology is still reverberating th… http…
 7 2015-01-05 Libra       Get out your markers and your glue sticks. Get … http…
 8 2015-01-05 Scorpio     Time to pay extra attention to the needs of you… http…
 9 2015-01-05 Sagittarius Everything right now is about how you say it, h… http…
10 2015-01-05 Capricorn   The full moon on January 4th/5th was a healthy … http…
# ℹ 1,262 more rows
…
horoscopes_by_word <-
  horoscopes |>
  select(-startdate,-url) |>
  unnest_tokens(output = word,
                input = horoscope,
                token = "words")

horoscopes_counts_by_word <-
  horoscopes_by_word |>
  count(zodiacsign, word, sort = TRUE)

horoscopes_counts_by_word

# A tibble: 41,847 × 3
   zodiacsign  word      n
   <fct>       <chr> <int>
 1 Cancer      to     1440
 2 Sagittarius to     1377
 3 Aquarius    to     1357
 4 Aries       to     1335
 5 Pisces      to     1313
 6 Leo         to     1302
 7 Libra       to     1270
 8 Sagittarius you    1264
 9 Virgo       to     1262
10 Scorpio     to     1260
# ℹ 41,837 more rows
…
tidytext의 bind_tf_idf()를 사용하여 이 값을 생성할 수 있습니다. 각 측정값에 대한 새 변수를 생성합니다.

horoscopes_counts_by_word_tf_idf <-
  horoscopes_counts_by_word |>
  bind_tf_idf(
    term = word,
    document = zodiacsign,
    n = n
  ) |>
  arrange(-tf_idf)

horoscopes_counts_by_word_tf_idf

# A tibble: 41,847 × 6
   zodiacsign  word            n       tf   idf   tf_idf
   <fct>       <chr>       <int>    <dbl> <dbl>    <dbl>
 1 Capricorn   goat            6 0.000236  2.48 0.000585
 2 Pisces      pisces         14 0.000531  1.10 0.000584
 3 Sagittarius sagittarius    10 0.000357  1.39 0.000495
 4 Cancer      cancer         10 0.000348  1.39 0.000483
 5 Gemini      gemini          7 0.000263  1.79 0.000472
 6 Taurus      bulls           5 0.000188  2.48 0.000467
 7 Aries       warns           5 0.000186  2.48 0.000463
 8 Cancer      organize        7 0.000244  1.79 0.000437
 9 Cancer      overwork        5 0.000174  2.48 0.000432
10 Taurus      let's          10 0.000376  1.10 0.000413
# ℹ 41,837 more rows
…
hansard_canada_2018

# A tibble: 33,105 × 6
    basepk speechdate speechtext          speakername speakerparty speakerriding
     <int> <date>     <chr>               <chr>       <chr>        <chr>        
 1 4732776 2018-01-29 "Mr. Speaker, I wo… Julie Dabr… Liberal      Toronto—Danf…
 2 4732777 2018-01-29 "Mr. Speaker, I wa… Matthew Du… New Democra… Beloeil—Cham…
 3 4732778 2018-01-29 "Mr. Speaker, I am… Stephanie … Conservative Calgary Midn…
 4 4732779 2018-01-29 "Resuming debate.\… Anthony Ro… Liberal      Nipissing—Ti…
 5 4732780 2018-01-29 "Mr. Speaker, we a… Alain Rayes Conservative Richmond—Art…
 6 4732781 2018-01-29 "The question is o… Anthony Ro… Liberal      Nipissing—Ti…
 7 4732782 2018-01-29 "Agreed.\n No."     Some hon. … <NA>         <NA>         
 8 4732783 2018-01-29 "All those in favo… Anthony Ro… Liberal      Nipissing—Ti…
 9 4732784 2018-01-29 "Yea."              Some hon. … <NA>         <NA>         
10 4732785 2018-01-29 "All those opposed… Anthony Ro… Liberal      Nipissing—Ti…
# ℹ 33,095 more rows
…
