Online Appendix A — R 필수 사항 – 데이터로 이야기하기
…
A.4.1 select()

데이터셋의 특정 열을 선택하려면 select()를 사용합니다. 예를 들어, “firstName” 열을 선택하고 싶을 수 있습니다.

australian_politicians |>
  select(firstName)

# A tibble: 1,783 × 1
   firstName
   <chr>    
 1 Richard  
 2 Percy    
 3 Macartney
 4 Charles  
 5 Joseph   
 6 Anthony  
 7 John     
 8 Eric     
 9 Judith   
10 Dick     
# ℹ 1,773 more rows
…
두 가지는 비슷해 보입니다. 둘 다 “firstName” 열을 선택하지만, 반환하는 것의 클래스가 다릅니다. select()는 티블을 반환하고 $는 벡터를 반환합니다. 완전성을 위해 select()와 pull()을 결합하면 추출 연산자를 사용한 것과 동일한 클래스의 출력, 즉 벡터를 얻습니다.

australian_politicians |>
  select(firstName) |>
  pull() |>
  head()

[1] "Richard"   "Percy"     "Macartney" "Charles"   "Joseph"    "Anthony"  

열 이름을 부정하여 select()를 사용하여 열을 제거할 수도 있습니다.

australian_politicians |>
  select(-firstName)

# A tibble: 1,783 × 19
   uniqueID   surname allOtherNames   commonName displayName earlierOrLaterNames
   <chr>      <chr>   <chr>           <chr>      <chr>       <chr>              
 1 Abbott1859 Abbott  Richard Hartle… <NA>       Abbott, Ri… <NA>               
 2 Abbott1869 Abbott  Percy Phipps    <NA>       Abbott, Pe… <NA>               
 3 Abbott1877 Abbott  Macartney       Mac        Abbott, Mac <NA>               
 4 Abbott1886 Abbott  Charles Lydiar… Aubrey     Abbott, Au… <NA>               
 5 Abbott1891 Abbott  Joseph Palmer   <NA>       Abbott, Jo… <NA>               
 6 Abbott1957 Abbott  Anthony John    Tony       Abbott, To… <NA>               
 7 Abel1939   Abel    John Arthur     <NA>       Abel, John  <NA>               
 8 Abetz1958  Abetz   Eric            <NA>       Abetz, Eric <NA>               
 9 Adams1943  Adams   Judith Anne     <NA>       Adams, Jud… nee Bird           
10 Adams1951  Adams   Dick Godfrey H… <NA>       Adams, Dick <NA>               
# ℹ 1,773 more rows
# ℹ 13 more variables: title <chr>, gender <chr>, birthDate <date>,
#   birthYear <dbl>, birthPlace <chr>, deathDate <date>, member <dbl>,
#   senator <dbl>, wasPrimeMinister <dbl>, wikidataID <chr>, wikipedia <chr>,
#   adb <chr>, comments <chr>

마지막으로, 조건을 기반으로 select()할 수 있습니다. 예를 들어, “birth”로 시작하는 모든 열을 select()할 수 있습니다.

australian_politicians |>
  select(starts_with("birth"))

# A tibble: 1,783 × 3
   birthDate  birthYear birthPlace  
   <date>         <dbl> <chr>       
 1 NA              1859 Bendigo     
 2 1869-05-14        NA Hobart      
 3 1877-07-03        NA Murrurundi  
 4 1886-01-04        NA St Leonards 
 5 1891-10-18        NA North Sydney
 6 1957-11-04        NA London      
 7 1939-06-25        NA Sydney      
 8 1958-01-25        NA Stuttgart   
 9 1943-04-11        NA Picton      
10 1951-04-29        NA Launceston  
# ℹ 1,773 more rows
…
australian_politicians

# A tibble: 1,783 × 10
   uniqueID   surname firstName gender birthDate  birthYear deathDate  member
   <chr>      <chr>   <chr>     <chr>  <date>         <dbl> <date>      <dbl>
 1 Abbott1859 Abbott  Richard   male   NA              1859 1940-02-28      0
 2 Abbott1869 Abbott  Percy     male   1869-05-14        NA 1940-09-09      1
 3 Abbott1877 Abbott  Macartney male   1877-07-03        NA 1960-12-30      0
 4 Abbott1886 Abbott  Charles   male   1886-01-04        NA 1975-04-30      1
 5 Abbott1891 Abbott  Joseph    male   1891-10-18        NA 1965-05-07      1
 6 Abbott1957 Abbott  Anthony   male   1957-11-04        NA NA              1
 7 Abel1939   Abel    John      male   1939-06-25        NA NA              1
 8 Abetz1958  Abetz   Eric      male   1958-01-25        NA NA              0
 9 Adams1943  Adams   Judith    female 1943-04-11        NA 2012-03-31      0
10 Adams1951  Adams   Dick      male   1951-04-29        NA NA              1
# ℹ 1,773 more rows
# ℹ 2 more variables: senator <dbl>, wasPrimeMinister <dbl>

R을 처음 사용하는 사람들을 혼란스럽게 하는 한 가지는 출력이 객체에 할당되지 않으면 “저장”되지 않는다는 것입니다. 예를 들어, 여기서는 첫 줄이 australian_politicians <- australian_politicians |>이고, 그 다음 select()가 사용됩니다. australian_politicians |>와 비교됩니다. 이렇게 하면 select()에 의해 발생한 변경 사항이 객체에 적용되므로, 코드의 나중에 해당 수정된 버전이 사용됩니다.

A.4.2 filter()

데이터셋의 특정 행을 선택하려면 filter()를 사용합니다. 예를 들어, 총리가 된 정치인에게만 관심이 있을 수 있습니다.

australian_politicians |>
  filter(wasPrimeMinister == 1)

# A tibble: 30 × 10
   uniqueID    surname firstName gender birthDate  birthYear deathDate  member
   <chr>       <chr>   <chr>     <chr>  <date>         <dbl> <date>      <dbl>
 1 Abbott1957  Abbott  Anthony   male   1957-11-04        NA NA              1
 2 Barton1849  Barton  Edmund    male   1849-01-18        NA 1920-01-07      1
 3 Bruce1883   Bruce   Stanley   male   1883-04-15        NA 1967-08-25      1
 4 Chifley1885 Chifley Joseph    male   1885-09-22        NA 1951-06-13      1
 5 Cook1860    Cook    Joseph    male   1860-12-07        NA 1947-07-30      1
 6 Curtin1885  Curtin  John      male   1885-01-08        NA 1945-07-05      1
 7 Deakin1856  Deakin  Alfred    male   1856-08-03        NA 1919-10-07      1
 8 Fadden1894  Fadden  Arthur    male   1894-04-13        NA 1973-04-21      1
 9 Fisher1862  Fisher  Andrew    male   1862-08-29        NA 1928-10-22      1
10 Forde1890   Forde   Francis   male   1890-07-18        NA 1983-01-28      1
# ℹ 20 more rows
# ℹ 2 more variables: senator <dbl>, wasPrimeMinister <dbl>
…
australian_politicians |>
  slice(853)

# A tibble: 1 × 10
  uniqueID     surname  firstName gender birthDate  birthYear deathDate member
  <chr>        <chr>    <chr>     <chr>  <date>         <dbl> <date>     <dbl>
1 Jakobsen1947 Jakobsen Carolyn   female 1947-09-11        NA NA             1
# ℹ 2 more variables: senator <dbl>, wasPrimeMinister <dbl>

이것은 다소 난해해 보일 수 있지만, 부정을 사용하여 특정 행을 제거하거나 특정 행을 복제하려는 경우 특히 유용합니다. 예를 들어, 첫 번째 행을 제거할 수 있습니다.

australian_politicians |>
  slice(-1)

# A tibble: 1,782 × 10
   uniqueID    surname firstName gender birthDate  birthYear deathDate  member
   <chr>       <chr>   <chr>     <chr>  <date>         <dbl> <date>      <dbl>
 1 Abbott1869  Abbott  Percy     male   1869-05-14        NA 1940-09-09      1
 2 Abbott1877  Abbott  Macartney male   1877-07-03        NA 1960-12-30      0
 3 Abbott1886  Abbott  Charles   male   1886-01-04        NA 1975-04-30      1
 4 Abbott1891  Abbott  Joseph    male   1891-10-18        NA 1965-05-07      1
 5 Abbott1957  Abbott  Anthony   male   1957-11-04        NA NA              1
 6 Abel1939    Abel    John      male   1939-06-25        NA NA              1
 7 Abetz1958   Abetz   Eric      male   1958-01-25        NA NA              0
 8 Adams1943   Adams   Judith    female 1943-04-11        NA 2012-03-31      0
 9 Adams1951   Adams   Dick      male   1951-04-29        NA NA              1
10 Adamson1857 Adamson John      male   1857-02-18        NA 1922-05-02      0
# ℹ 1,772 more rows
# ℹ 2 more variables: senator <dbl>, wasPrimeMinister <dbl>
…
# A tibble: 3 × 10
  uniqueID   surname firstName gender birthDate  birthYear deathDate  member
  <chr>      <chr>   <chr>     <chr>  <date>         <dbl> <date>      <dbl>
1 Abbott1859 Abbott  Richard   male   NA              1859 1940-02-28      0
2 Abbott1869 Abbott  Percy     male   1869-05-14        NA 1940-09-09      1
3 Abbott1877 Abbott  Macartney male   1877-07-03        NA 1960-12-30      0
# ℹ 2 more variables: senator <dbl>, wasPrimeMinister <dbl>

마지막으로, 처음 두 행을 복제할 수 있으며, 이는 현재 그룹 크기를 제공하는 n()을 활용합니다.

australian_politicians |>
  slice(1:2, 1:n())

# A tibble: 1,785 × 10
   uniqueID   surname firstName gender birthDate  birthYear deathDate  member
   <chr>      <chr>   <chr>     <chr>  <date>         <dbl> <date>      <dbl>
 1 Abbott1859 Abbott  Richard   male   NA              1859 1940-02-28      0
 2 Abbott1869 Abbott  Percy     male   1869-05-14        NA 1940-09-09      1
 3 Abbott1859 Abbott  Richard   male   NA              1859 1940-02-28      0
 4 Abbott1869 Abbott  Percy     male   1869-05-14        NA 1940-09-09      1
 5 Abbott1877 Abbott  Macartney male   1877-07-03        NA 1960-12-30      0
 6 Abbott1886 Abbott  Charles   male   1886-01-04        NA 1975-04-30      1
 7 Abbott1891 Abbott  Joseph    male   1891-10-18        NA 1965-05-07      1
 8 Abbott1957 Abbott  Anthony   male   1957-11-04        NA NA              1
 9 Abel1939   Abel    John      male   1939-06-25        NA NA              1
10 Abetz1958  Abetz   Eric      male   1958-01-25        NA NA              0
# ℹ 1,775 more rows
# ℹ 2 more variables: senator <dbl>, wasPrimeMinister <dbl>

A.4.3 arrange()

특정 열의 값을 기반으로 데이터셋의 순서를 변경하려면 arrange()를 사용합니다. 예를 들어, 정치인들을 생년월일순으로 정렬할 수 있습니다.

australian_politicians |>
  arrange(birthYear)

# A tibble: 1,783 × 10
   uniqueID    surname firstName gender birthDate birthYear deathDate  member
   <chr>       <chr>   <chr>     <chr>  <date>        <dbl> <date>      <dbl>
 1 Edwards1842 Edwards Richard   male   NA             1842 1915-10-29      1
 2 Sawers1844  Sawers  William   male   NA             1844 1916-05-19      1
 3 Barker1846  Barker  Stephen   male   NA             1846 1924-06-21      0
 4 Corser1852  Corser  Edward    male   NA             1852 1928-07-31      1
 5 Lee1856     Lee     Henry     male   NA             1856 1927-08-12      1
 6 Grant1857   Grant   John      male   NA             1857 1928-05-19      0
 7 Abbott1859  Abbott  Richard   male   NA             1859 1940-02-28      0
 8 Palmer1859  Palmer  Albert    male   NA             1859 1919-08-14      1
 9 Riley1859   Riley   Edward    male   NA             1859 1943-07-21      1
10 Kennedy1860 Kennedy Thomas    male   NA             1860 1929-02-16      1
# ℹ 1,773 more rows
# ℹ 2 more variables: senator <dbl>, wasPrimeMinister <dbl>

desc()를 사용하여 arrange()를 수정하여 오름차순에서 내림차순으로 변경할 수 있습니다.

australian_politicians |>
  arrange(desc(birthYear))

# A tibble: 1,783 × 10
   uniqueID      surname firstName gender birthDate  birthYear deathDate  member
   <chr>         <chr>   <chr>     <chr>  <date>         <dbl> <date>      <dbl>
 1 McBain1982    McBain  Kristy    female 1982-09-29      1982 NA              1
 2 Cox1977       Cox     Dorinda   female NA              1977 NA              0
 3 Thorpe1973    Thorpe  Lidia     female 1973-08-18      1973 NA              0
 4 McLachlan1966 McLach… Andrew    male   1966-01-14      1966 NA              0
 5 Wortley1959   Wortley Dana      female NA              1959 NA              0
 6 Baker1903     Baker   Francis   male   NA              1903 1939-03-28      1
 7 Clay1900      Clay    Lionel    male   NA              1900 1965-04-16      1
 8 Breen1898     Breen   John      male   NA              1898 1966-02-05      1
 9 Clasby1891    Clasby  John      male   NA              1891 1932-01-15      1
10 Gander1888    Gander  Joseph    male   NA              1888 1954-11-22      1
# ℹ 1,773 more rows
# ℹ 2 more variables: senator <dbl>, wasPrimeMinister <dbl>

빼기 기호를 사용해도 동일한 결과를 얻을 수 있습니다.

australian_politicians |>
  arrange(-birthYear)

# A tibble: 1,783 × 10
   uniqueID      surname firstName gender birthDate  birthYear deathDate  member
   <chr>         <chr>   <chr>     <chr>  <date>         <dbl> <date>      <dbl>
 1 McBain1982    McBain  Kristy    female 1982-09-29      1982 NA              1
 2 Cox1977       Cox     Dorinda   female NA              1977 NA              0
 3 Thorpe1973    Thorpe  Lidia     female 1973-08-18      1973 NA              0
 4 McLachlan1966 McLach… Andrew    male   1966-01-14      1966 NA              0
 5 Wortley1959   Wortley Dana      female NA              1959 NA              0
 6 Baker1903     Baker   Francis   male   NA              1903 1939-03-28      1
 7 Clay1900      Clay    Lionel    male   NA              1900 1965-04-16      1
 8 Breen1898     Breen   John      male   NA              1898 1966-02-05      1
 9 Clasby1891    Clasby  John      male   NA              1891 1932-01-15      1
10 Gander1888    Gander  Joseph    male   NA              1888 1954-11-22      1
# ℹ 1,773 more rows
# ℹ 2 more variables: senator <dbl>, wasPrimeMinister <dbl>

그리고 하나 이상의 열을 기준으로 정렬할 수도 있습니다. 예를 들어, 두 정치인이 동일한 이름을 가지고 있다면, 생년월일을 기준으로도 정렬할 수 있습니다.

australian_politicians |>
  arrange(firstName, birthYear)

# A tibble: 1,783 × 10
   uniqueID      surname firstName gender birthDate  birthYear deathDate  member
   <chr>         <chr>   <chr>     <chr>  <date>         <dbl> <date>      <dbl>
 1 Blain1894     Blain   Adair     male   1894-11-21        NA 1983-04-28      1
 2 Armstrong1909 Armstr… Adam      male   1909-07-01        NA 1982-02-22      1
 3 Bandt1972     Bandt   Adam      male   1972-03-11        NA NA              1
 4 Dein1889      Dein    Adam      male   1889-03-04        NA 1969-05-09      1
 5 Ridgeway1962  Ridgew… Aden      male   1962-09-18        NA NA              0
 6 Bennett1933   Bennett Adrian    male   1933-01-21        NA 2006-05-09      1
 7 Gibson1935    Gibson  Adrian    male   1935-11-03        NA 2015-04-30      1
 8 Wynne1850     Wynne   Agar      male   1850-01-15        NA 1934-05-12      1
 9 Robertson1882 Robert… Agnes     female 1882-07-31        NA 1968-01-29      0
10 Bird1906      Bird    Alan      male   1906-09-28        NA 1962-07-21      1
# ℹ 1,773 more rows
# ℹ 2 more variables: senator <dbl>, wasPrimeMinister <dbl>

두 개의 arrange() 인스턴스 사이에 파이프를 사용하여 동일한 결과를 얻을 수 있습니다.

australian_politicians |>
  arrange(birthYear) |>
  arrange(firstName)

# A tibble: 1,783 × 10
   uniqueID      surname firstName gender birthDate  birthYear deathDate  member
   <chr>         <chr>   <chr>     <chr>  <date>         <dbl> <date>      <dbl>
 1 Blain1894     Blain   Adair     male   1894-11-21        NA 1983-04-28      1
 2 Armstrong1909 Armstr… Adam      male   1909-07-01        NA 1982-02-22      1
 3 Bandt1972     Bandt   Adam      male   1972-03-11        NA NA              1
 4 Dein1889      Dein    Adam      male   1889-03-04        NA 1969-05-09      1
 5 Ridgeway1962  Ridgew… Aden      male   1962-09-18        NA NA              0
 6 Bennett1933   Bennett Adrian    male   1933-01-21        NA 2006-05-09      1
 7 Gibson1935    Gibson  Adrian    male   1935-11-03        NA 2015-04-30      1
 8 Wynne1850     Wynne   Agar      male   1850-01-15        NA 1934-05-12      1
 9 Robertson1882 Robert… Agnes     female 1882-07-31        NA 1968-01-29      0
10 Bird1906      Bird    Alan      male   1906-09-28        NA 1962-07-21      1
# ℹ 1,773 more rows
# ℹ 2 more variables: senator <dbl>, wasPrimeMinister <dbl>

arrange()를 사용할 때는 우선순위를 명확히 해야 합니다. 예를 들어, 생년월일 다음에 이름을 기준으로 변경하면 다른 정렬이 됩니다.

australian_politicians |>
  arrange(birthYear, firstName)

# A tibble: 1,783 × 10
   uniqueID    surname firstName gender birthDate birthYear deathDate  member
   <chr>       <chr>   <chr>     <chr>  <date>        <dbl> <date>      <dbl>
 1 Edwards1842 Edwards Richard   male   NA             1842 1915-10-29      1
 2 Sawers1844  Sawers  William   male   NA             1844 1916-05-19      1
 3 Barker1846  Barker  Stephen   male   NA             1846 1924-06-21      0
 4 Corser1852  Corser  Edward    male   NA             1852 1928-07-31      1
 5 Lee1856     Lee     Henry     male   NA             1856 1927-08-12      1
 6 Grant1857   Grant   John      male   NA             1857 1928-05-19      0
 7 Palmer1859  Palmer  Albert    male   NA             1859 1919-08-14      1
 8 Riley1859   Riley   Edward    male   NA             1859 1943-07-21      1
 9 Abbott1859  Abbott  Richard   male   NA             1859 1940-02-28      0
10 Kennedy1860 Kennedy Thomas    male   NA             1860 1929-02-16      1
# ℹ 1,773 more rows
# ℹ 2 more variables: senator <dbl>, wasPrimeMinister <dbl>

다양한 열을 기준으로 정렬하는 좋은 방법은 across()를 사용하는 것입니다. 이는 select()와 관련하여 언급된 starts_with()와 같은 “선택 도우미”를 사용할 수 있게 해줍니다.

australian_politicians |>
  arrange(across(c(firstName, birthYear)))

# A tibble: 1,783 × 10
   uniqueID      surname firstName gender birthDate  birthYear deathDate  member
   <chr>         <chr>   <chr>     <chr>  <date>         <dbl> <date>      <dbl>
 1 Blain1894     Blain   Adair     male   1894-11-21        NA 1983-04-28      1
 2 Armstrong1909 Armstr… Adam      male   1909-07-01        NA 1982-02-22      1
 3 Bandt1972     Bandt   Adam      male   1972-03-11        NA NA              1
 4 Dein1889      Dein    Adam      male   1889-03-04        NA 1969-05-09      1
 5 Ridgeway1962  Ridgew… Aden      male   1962-09-18        NA NA              0
 6 Bennett1933   Bennett Adrian    male   1933-01-21        NA 2006-05-09      1
 7 Gibson1935    Gibson  Adrian    male   1935-11-03        NA 2015-04-30      1
 8 Wynne1850     Wynne   Agar      male   1850-01-15        NA 1934-05-12      1
 9 Robertson1882 Robert… Agnes     female 1882-07-31        NA 1968-01-29      0
10 Bird1906      Bird    Alan      male   1906-09-28        NA 1962-07-21      1
# ℹ 1,773 more rows
# ℹ 2 more variables: senator <dbl>, wasPrimeMinister <dbl>

australian_politicians |>
  arrange(across(starts_with("birth")))

# A tibble: 1,783 × 10
   uniqueID     surname  firstName gender birthDate  birthYear deathDate  member
   <chr>        <chr>    <chr>     <chr>  <date>         <dbl> <date>      <dbl>
 1 Braddon1829  Braddon  Edward    male   1829-06-11        NA 1904-02-02      1
 2 Ferguson1830 Ferguson John      male   1830-03-15        NA 1906-03-30      0
 3 Zeal1830     Zeal     William   male   1830-12-05        NA 1912-03-11      0
 4 Fraser1832   Fraser   Simon     male   1832-08-21        NA 1919-07-30      0
 5 Groom1833    Groom    William   male   1833-03-09        NA 1901-08-08      1
 6 Sargood1834  Sargood  Frederick male   1834-05-30        NA 1903-01-02      0
 7 Fysh1835     Fysh     Philip    male   1835-03-01        NA 1919-12-20      1
 8 Playford1837 Playford Thomas    male   1837-11-26        NA 1915-04-19      0
 9 Solomon1839  Solomon  Elias     male   1839-09-02        NA 1909-05-23      1
10 McLean1840   McLean   Allan     male   1840-02-03        NA 1911-07-13      1
# ℹ 1,773 more rows
# ℹ 2 more variables: senator <dbl>, wasPrimeMinister <dbl>

A.4.4 mutate()

새 열을 만들고 싶을 때 mutate()를 사용합니다. 예를 들어, 어떤 사람이 의원이자 상원 의원인 경우 1이고 그렇지 않으면 0인 새 열을 만들고 싶을 수 있습니다. 즉, 새 열은 상원과 하원 모두에서 봉사한 정치인을 나타냅니다.

australian_politicians <-
  australian_politicians |>
  mutate(was_both = if_else(member == 1 & senator == 1, 1, 0))

australian_politicians |>
  select(member, senator, was_both)

# A tibble: 1,783 × 3
   member senator was_both
    <dbl>   <dbl>    <dbl>
 1      0       1        0
 2      1       1        1
 3      0       1        0
 4      1       0        0
 5      1       0        0
 6      1       0        0
 7      1       0        0
 8      0       1        0
 9      0       1        0
10      1       0        0
# ℹ 1,773 more rows

덧셈과 뺄셈과 같은 수학을 mutate()와 함께 사용할 수 있습니다. 예를 들어, 정치인들의 2022년 나이(또는 나이였을 것)를 계산할 수 있습니다.

library(lubridate)

australian_politicians <-
  australian_politicians |>
  mutate(age = 2022 - year(birthDate))

australian_politicians |>
  select(uniqueID, age)

# A tibble: 1,783 × 2
   uniqueID     age
   <chr>      <dbl>
 1 Abbott1859    NA
 2 Abbott1869   153
 3 Abbott1877   145
 4 Abbott1886   136
 5 Abbott1891   131
 6 Abbott1957    65
 7 Abel1939      83
 8 Abetz1958     64
 9 Adams1943     79
10 Adams1951     71
# ℹ 1,773 more rows

새 열을 구성할 때 특히 유용한 다양한 함수가 있습니다. 여기에는 자연 로그를 계산하는 log(), 값을 한 행 위로 가져오는 lead(), 값을 한 행 아래로 내리는 lag(), 그리고 열의 누적 합계를 생성하는 cumsum()이 포함됩니다.

australian_politicians |>
  select(uniqueID, age) |>
  mutate(log_age = log(age))

# A tibble: 1,783 × 3
   uniqueID     age log_age
   <chr>      <dbl>   <dbl>
 1 Abbott1859    NA   NA   
 2 Abbott1869   153    5.03
 3 Abbott1877   145    4.98
 4 Abbott1886   136    4.91
 5 Abbott1891   131    4.88
 6 Abbott1957    65    4.17
 7 Abel1939      83    4.42
 8 Abetz1958     64    4.16
 9 Adams1943     79    4.37
10 Adams1951     71    4.26
# ℹ 1,773 more rows
…
